<svg xmlns="http://www.w3.org/2000/svg" width="48" height="48" viewBox="0 0 48 48">
    <g class="nc-icon-wrapper" fill="#111111">
        <path d="M12 36c0 1.1.9 2 2 2h2v7c0 1.66 1.34 3 3 3s3-1.34 3-3v-7h4v7c0 1.66 1.34 3 3 3s3-1.34 3-3v-7h2c1.1 0 2-.9 2-2V16H12v20zM7 16c-1.66 0-3 1.34-3 3v14c0 1.66 1.34 3 3 3s3-1.34 3-3V19c0-1.66-1.34-3-3-3zm34 0c-1.66 0-3 1.34-3 3v14c0 1.66 1.34 3 3 3s3-1.34 3-3V19c0-1.66-1.34-3-3-3zM31.06 4.32l2.61-2.61c.39-.39.39-1.02 0-1.41-.39-.39-1.02-.39-1.41 0L29.3 3.25C27.7 2.46 25.91 2 24 2c-1.92 0-3.72.46-5.33 1.26L15.7.29c-.39-.39-1.02-.39-1.41 0-.39.39-.39 1.02 0 1.41l2.62 2.62C13.94 6.51 12 10.03 12 14h24c0-3.98-1.95-7.5-4.94-9.68zM20 10h-2V8h2v2zm10 0h-2V8h2v2z"></path>
    </g>
</svg>